-- Merging decision tree log ---
manifest
ADDED from D:\FlutterProyects\count\android\app\src\main\AndroidManifest.xml:1:1-33:12
INJECTED from D:\FlutterProyects\count\android\app\src\main\AndroidManifest.xml:1:1-33:12
INJECTED from D:\FlutterProyects\count\android\app\src\main\AndroidManifest.xml:1:1-33:12
INJECTED from D:\FlutterProyects\count\android\app\src\main\AndroidManifest.xml:1:1-33:12
MERGED from D:\FlutterProyects\count\android\app\src\main\AndroidManifest.xml:1:1-33:12
MERGED from [:sqflite] D:\FlutterProyects\count\build\sqflite\intermediates\merged_manifests\debug\processDebugManifest\merged\AndroidManifest.xml:2:1-7:12
MERGED from [:path_provider] D:\FlutterProyects\count\build\path_provider\intermediates\merged_manifests\debug\processDebugManifest\merged\AndroidManifest.xml:2:1-7:12
MERGED from [androidx.fragment:fragment:1.1.0] C:\Users\JuanLuis\.gradle\caches\transforms-1\files-1.1\fragment-1.1.0.aar\f2c1616fed0f46ed78f9fc433db6a554\AndroidManifest.xml:17:1-24:12
MERGED from [androidx.activity:activity:1.0.0] C:\Users\JuanLuis\.gradle\caches\transforms-1\files-1.1\activity-1.0.0.aar\5c0ae8d02a03fad545ddd6377aaa0f38\AndroidManifest.xml:17:1-24:12
MERGED from [androidx.viewpager:viewpager:1.0.0] C:\Users\JuanLuis\.gradle\caches\transforms-1\files-1.1\viewpager-1.0.0.aar\4cee213ebda6d7e47516e2a7bea83948\AndroidManifest.xml:17:1-22:12
MERGED from [androidx.loader:loader:1.0.0] C:\Users\JuanLuis\.gradle\caches\transforms-1\files-1.1\loader-1.0.0.aar\ee43d3a5960d0b92d784d118e4b6dac4\AndroidManifest.xml:17:1-22:12
MERGED from [androidx.customview:customview:1.0.0] C:\Users\JuanLuis\.gradle\caches\transforms-1\files-1.1\customview-1.0.0.aar\f98ea1a94a6114e0e019fc4fe0ac5fb5\AndroidManifest.xml:17:1-22:12
MERGED from [androidx.core:core:1.1.0] C:\Users\JuanLuis\.gradle\caches\transforms-1\files-1.1\core-1.1.0.aar\97bf353bae26de48dbf55b899bfda520\AndroidManifest.xml:17:1-26:12
MERGED from [androidx.lifecycle:lifecycle-runtime:2.2.0] C:\Users\JuanLuis\.gradle\caches\transforms-1\files-1.1\lifecycle-runtime-2.2.0.aar\b1f1ae56cda300b91d4299ba95b14bc5\AndroidManifest.xml:17:1-24:12
MERGED from [androidx.savedstate:savedstate:1.0.0] C:\Users\JuanLuis\.gradle\caches\transforms-1\files-1.1\savedstate-1.0.0.aar\03d8ec9799c2d0ae5d01fb2a5f6b9efc\AndroidManifest.xml:17:1-24:12
MERGED from [androidx.lifecycle:lifecycle-livedata:2.0.0] C:\Users\JuanLuis\.gradle\caches\transforms-1\files-1.1\lifecycle-livedata-2.0.0.aar\539078b4324c88f2e4bfa084e0b9496c\AndroidManifest.xml:17:1-22:12
MERGED from [androidx.lifecycle:lifecycle-livedata-core:2.0.0] C:\Users\JuanLuis\.gradle\caches\transforms-1\files-1.1\lifecycle-livedata-core-2.0.0.aar\134eb43ba3cd544a2a3eaef1a5f9e8ac\AndroidManifest.xml:17:1-22:12
MERGED from [androidx.arch.core:core-runtime:2.0.0] C:\Users\JuanLuis\.gradle\caches\transforms-1\files-1.1\core-runtime-2.0.0.aar\ec323a22cab29ae303f61082c623e679\AndroidManifest.xml:17:1-22:12
MERGED from [androidx.versionedparcelable:versionedparcelable:1.1.0] C:\Users\JuanLuis\.gradle\caches\transforms-1\files-1.1\versionedparcelable-1.1.0.aar\a6cd94d767da3744f9be569a47e13376\AndroidManifest.xml:17:1-27:12
MERGED from [androidx.lifecycle:lifecycle-viewmodel:2.1.0] C:\Users\JuanLuis\.gradle\caches\transforms-1\files-1.1\lifecycle-viewmodel-2.1.0.aar\4c5442eb2f3251c19cd688e35e6be290\AndroidManifest.xml:17:1-22:12
INJECTED from D:\FlutterProyects\count\android\app\src\debug\AndroidManifest.xml:1:1-7:12
INJECTED from D:\FlutterProyects\count\android\app\src\debug\AndroidManifest.xml:1:1-7:12
INJECTED from D:\FlutterProyects\count\android\app\src\debug\AndroidManifest.xml:1:1-7:12
	package
		ADDED from D:\FlutterProyects\count\android\app\src\main\AndroidManifest.xml:2:5-32
		INJECTED from D:\FlutterProyects\count\android\app\src\main\AndroidManifest.xml
		INJECTED from D:\FlutterProyects\count\android\app\src\debug\AndroidManifest.xml
	android:versionName
		INJECTED from D:\FlutterProyects\count\android\app\src\main\AndroidManifest.xml
		ADDED from D:\FlutterProyects\count\android\app\src\main\AndroidManifest.xml:1:1-33:12
		INJECTED from D:\FlutterProyects\count\android\app\src\debug\AndroidManifest.xml
	android:versionCode
		INJECTED from D:\FlutterProyects\count\android\app\src\main\AndroidManifest.xml
		ADDED from D:\FlutterProyects\count\android\app\src\main\AndroidManifest.xml:1:1-33:12
		INJECTED from D:\FlutterProyects\count\android\app\src\debug\AndroidManifest.xml
	xmlns:android
		ADDED from D:\FlutterProyects\count\android\app\src\main\AndroidManifest.xml:1:11-69
application
ADDED from D:\FlutterProyects\count\android\app\src\main\AndroidManifest.xml:9:5-32:19
MERGED from [androidx.core:core:1.1.0] C:\Users\JuanLuis\.gradle\caches\transforms-1\files-1.1\core-1.1.0.aar\97bf353bae26de48dbf55b899bfda520\AndroidManifest.xml:24:5-89
MERGED from [androidx.core:core:1.1.0] C:\Users\JuanLuis\.gradle\caches\transforms-1\files-1.1\core-1.1.0.aar\97bf353bae26de48dbf55b899bfda520\AndroidManifest.xml:24:5-89
MERGED from [androidx.versionedparcelable:versionedparcelable:1.1.0] C:\Users\JuanLuis\.gradle\caches\transforms-1\files-1.1\versionedparcelable-1.1.0.aar\a6cd94d767da3744f9be569a47e13376\AndroidManifest.xml:24:5-25:19
MERGED from [androidx.versionedparcelable:versionedparcelable:1.1.0] C:\Users\JuanLuis\.gradle\caches\transforms-1\files-1.1\versionedparcelable-1.1.0.aar\a6cd94d767da3744f9be569a47e13376\AndroidManifest.xml:24:5-25:19
	android:appComponentFactory
		ADDED from [androidx.core:core:1.1.0] C:\Users\JuanLuis\.gradle\caches\transforms-1\files-1.1\core-1.1.0.aar\97bf353bae26de48dbf55b899bfda520\AndroidManifest.xml:24:18-86
	android:label
		ADDED from D:\FlutterProyects\count\android\app\src\main\AndroidManifest.xml:11:9-30
	android:icon
		ADDED from D:\FlutterProyects\count\android\app\src\main\AndroidManifest.xml:12:9-43
	android:name
		ADDED from D:\FlutterProyects\count\android\app\src\main\AndroidManifest.xml:10:9-57
activity#com.example.count.MainActivity
ADDED from D:\FlutterProyects\count\android\app\src\main\AndroidManifest.xml:13:9-31:20
	android:launchMode
		ADDED from D:\FlutterProyects\count\android\app\src\main\AndroidManifest.xml:15:13-43
	android:hardwareAccelerated
		ADDED from D:\FlutterProyects\count\android\app\src\main\AndroidManifest.xml:18:13-47
	android:windowSoftInputMode
		ADDED from D:\FlutterProyects\count\android\app\src\main\AndroidManifest.xml:19:13-55
	android:configChanges
		ADDED from D:\FlutterProyects\count\android\app\src\main\AndroidManifest.xml:17:13-144
	android:theme
		ADDED from D:\FlutterProyects\count\android\app\src\main\AndroidManifest.xml:16:13-47
	android:name
		ADDED from D:\FlutterProyects\count\android\app\src\main\AndroidManifest.xml:14:13-41
meta-data#io.flutter.app.android.SplashScreenUntilFirstFrame
ADDED from D:\FlutterProyects\count\android\app\src\main\AndroidManifest.xml:24:13-26:40
	android:value
		ADDED from D:\FlutterProyects\count\android\app\src\main\AndroidManifest.xml:26:17-37
	android:name
		ADDED from D:\FlutterProyects\count\android\app\src\main\AndroidManifest.xml:25:17-82
intent-filter#action:name:android.intent.action.MAIN+category:name:android.intent.category.LAUNCHER
ADDED from D:\FlutterProyects\count\android\app\src\main\AndroidManifest.xml:27:13-30:29
action#android.intent.action.MAIN
ADDED from D:\FlutterProyects\count\android\app\src\main\AndroidManifest.xml:28:17-68
	android:name
		ADDED from D:\FlutterProyects\count\android\app\src\main\AndroidManifest.xml:28:25-66
category#android.intent.category.LAUNCHER
ADDED from D:\FlutterProyects\count\android\app\src\main\AndroidManifest.xml:29:17-76
	android:name
		ADDED from D:\FlutterProyects\count\android\app\src\main\AndroidManifest.xml:29:27-74
uses-sdk
INJECTED from D:\FlutterProyects\count\android\app\src\main\AndroidManifest.xml reason: use-sdk injection requested
INJECTED from D:\FlutterProyects\count\android\app\src\main\AndroidManifest.xml
INJECTED from D:\FlutterProyects\count\android\app\src\main\AndroidManifest.xml
MERGED from [:sqflite] D:\FlutterProyects\count\build\sqflite\intermediates\merged_manifests\debug\processDebugManifest\merged\AndroidManifest.xml:5:5-44
MERGED from [:sqflite] D:\FlutterProyects\count\build\sqflite\intermediates\merged_manifests\debug\processDebugManifest\merged\AndroidManifest.xml:5:5-44
MERGED from [:path_provider] D:\FlutterProyects\count\build\path_provider\intermediates\merged_manifests\debug\processDebugManifest\merged\AndroidManifest.xml:5:5-44
MERGED from [:path_provider] D:\FlutterProyects\count\build\path_provider\intermediates\merged_manifests\debug\processDebugManifest\merged\AndroidManifest.xml:5:5-44
MERGED from [androidx.fragment:fragment:1.1.0] C:\Users\JuanLuis\.gradle\caches\transforms-1\files-1.1\fragment-1.1.0.aar\f2c1616fed0f46ed78f9fc433db6a554\AndroidManifest.xml:20:5-22:41
MERGED from [androidx.fragment:fragment:1.1.0] C:\Users\JuanLuis\.gradle\caches\transforms-1\files-1.1\fragment-1.1.0.aar\f2c1616fed0f46ed78f9fc433db6a554\AndroidManifest.xml:20:5-22:41
MERGED from [androidx.activity:activity:1.0.0] C:\Users\JuanLuis\.gradle\caches\transforms-1\files-1.1\activity-1.0.0.aar\5c0ae8d02a03fad545ddd6377aaa0f38\AndroidManifest.xml:20:5-22:41
MERGED from [androidx.activity:activity:1.0.0] C:\Users\JuanLuis\.gradle\caches\transforms-1\files-1.1\activity-1.0.0.aar\5c0ae8d02a03fad545ddd6377aaa0f38\AndroidManifest.xml:20:5-22:41
MERGED from [androidx.viewpager:viewpager:1.0.0] C:\Users\JuanLuis\.gradle\caches\transforms-1\files-1.1\viewpager-1.0.0.aar\4cee213ebda6d7e47516e2a7bea83948\AndroidManifest.xml:20:5-44
MERGED from [androidx.viewpager:viewpager:1.0.0] C:\Users\JuanLuis\.gradle\caches\transforms-1\files-1.1\viewpager-1.0.0.aar\4cee213ebda6d7e47516e2a7bea83948\AndroidManifest.xml:20:5-44
MERGED from [androidx.loader:loader:1.0.0] C:\Users\JuanLuis\.gradle\caches\transforms-1\files-1.1\loader-1.0.0.aar\ee43d3a5960d0b92d784d118e4b6dac4\AndroidManifest.xml:20:5-44
MERGED from [androidx.loader:loader:1.0.0] C:\Users\JuanLuis\.gradle\caches\transforms-1\files-1.1\loader-1.0.0.aar\ee43d3a5960d0b92d784d118e4b6dac4\AndroidManifest.xml:20:5-44
MERGED from [androidx.customview:customview:1.0.0] C:\Users\JuanLuis\.gradle\caches\transforms-1\files-1.1\customview-1.0.0.aar\f98ea1a94a6114e0e019fc4fe0ac5fb5\AndroidManifest.xml:20:5-44
MERGED from [androidx.customview:customview:1.0.0] C:\Users\JuanLuis\.gradle\caches\transforms-1\files-1.1\customview-1.0.0.aar\f98ea1a94a6114e0e019fc4fe0ac5fb5\AndroidManifest.xml:20:5-44
MERGED from [androidx.core:core:1.1.0] C:\Users\JuanLuis\.gradle\caches\transforms-1\files-1.1\core-1.1.0.aar\97bf353bae26de48dbf55b899bfda520\AndroidManifest.xml:20:5-22:41
MERGED from [androidx.core:core:1.1.0] C:\Users\JuanLuis\.gradle\caches\transforms-1\files-1.1\core-1.1.0.aar\97bf353bae26de48dbf55b899bfda520\AndroidManifest.xml:20:5-22:41
MERGED from [androidx.lifecycle:lifecycle-runtime:2.2.0] C:\Users\JuanLuis\.gradle\caches\transforms-1\files-1.1\lifecycle-runtime-2.2.0.aar\b1f1ae56cda300b91d4299ba95b14bc5\AndroidManifest.xml:20:5-22:41
MERGED from [androidx.lifecycle:lifecycle-runtime:2.2.0] C:\Users\JuanLuis\.gradle\caches\transforms-1\files-1.1\lifecycle-runtime-2.2.0.aar\b1f1ae56cda300b91d4299ba95b14bc5\AndroidManifest.xml:20:5-22:41
MERGED from [androidx.savedstate:savedstate:1.0.0] C:\Users\JuanLuis\.gradle\caches\transforms-1\files-1.1\savedstate-1.0.0.aar\03d8ec9799c2d0ae5d01fb2a5f6b9efc\AndroidManifest.xml:20:5-22:41
MERGED from [androidx.savedstate:savedstate:1.0.0] C:\Users\JuanLuis\.gradle\caches\transforms-1\files-1.1\savedstate-1.0.0.aar\03d8ec9799c2d0ae5d01fb2a5f6b9efc\AndroidManifest.xml:20:5-22:41
MERGED from [androidx.lifecycle:lifecycle-livedata:2.0.0] C:\Users\JuanLuis\.gradle\caches\transforms-1\files-1.1\lifecycle-livedata-2.0.0.aar\539078b4324c88f2e4bfa084e0b9496c\AndroidManifest.xml:20:5-44
MERGED from [androidx.lifecycle:lifecycle-livedata:2.0.0] C:\Users\JuanLuis\.gradle\caches\transforms-1\files-1.1\lifecycle-livedata-2.0.0.aar\539078b4324c88f2e4bfa084e0b9496c\AndroidManifest.xml:20:5-44
MERGED from [androidx.lifecycle:lifecycle-livedata-core:2.0.0] C:\Users\JuanLuis\.gradle\caches\transforms-1\files-1.1\lifecycle-livedata-core-2.0.0.aar\134eb43ba3cd544a2a3eaef1a5f9e8ac\AndroidManifest.xml:20:5-44
MERGED from [androidx.lifecycle:lifecycle-livedata-core:2.0.0] C:\Users\JuanLuis\.gradle\caches\transforms-1\files-1.1\lifecycle-livedata-core-2.0.0.aar\134eb43ba3cd544a2a3eaef1a5f9e8ac\AndroidManifest.xml:20:5-44
MERGED from [androidx.arch.core:core-runtime:2.0.0] C:\Users\JuanLuis\.gradle\caches\transforms-1\files-1.1\core-runtime-2.0.0.aar\ec323a22cab29ae303f61082c623e679\AndroidManifest.xml:20:5-44
MERGED from [androidx.arch.core:core-runtime:2.0.0] C:\Users\JuanLuis\.gradle\caches\transforms-1\files-1.1\core-runtime-2.0.0.aar\ec323a22cab29ae303f61082c623e679\AndroidManifest.xml:20:5-44
MERGED from [androidx.versionedparcelable:versionedparcelable:1.1.0] C:\Users\JuanLuis\.gradle\caches\transforms-1\files-1.1\versionedparcelable-1.1.0.aar\a6cd94d767da3744f9be569a47e13376\AndroidManifest.xml:20:5-22:41
MERGED from [androidx.versionedparcelable:versionedparcelable:1.1.0] C:\Users\JuanLuis\.gradle\caches\transforms-1\files-1.1\versionedparcelable-1.1.0.aar\a6cd94d767da3744f9be569a47e13376\AndroidManifest.xml:20:5-22:41
MERGED from [androidx.lifecycle:lifecycle-viewmodel:2.1.0] C:\Users\JuanLuis\.gradle\caches\transforms-1\files-1.1\lifecycle-viewmodel-2.1.0.aar\4c5442eb2f3251c19cd688e35e6be290\AndroidManifest.xml:20:5-44
MERGED from [androidx.lifecycle:lifecycle-viewmodel:2.1.0] C:\Users\JuanLuis\.gradle\caches\transforms-1\files-1.1\lifecycle-viewmodel-2.1.0.aar\4c5442eb2f3251c19cd688e35e6be290\AndroidManifest.xml:20:5-44
INJECTED from D:\FlutterProyects\count\android\app\src\debug\AndroidManifest.xml
INJECTED from D:\FlutterProyects\count\android\app\src\debug\AndroidManifest.xml
	android:targetSdkVersion
		INJECTED from D:\FlutterProyects\count\android\app\src\main\AndroidManifest.xml
		INJECTED from D:\FlutterProyects\count\android\app\src\debug\AndroidManifest.xml
	android:minSdkVersion
		INJECTED from D:\FlutterProyects\count\android\app\src\main\AndroidManifest.xml
		INJECTED from D:\FlutterProyects\count\android\app\src\debug\AndroidManifest.xml
uses-permission#android.permission.INTERNET
ADDED from D:\FlutterProyects\count\android\app\src\debug\AndroidManifest.xml:6:5-66
	android:name
		ADDED from D:\FlutterProyects\count\android\app\src\debug\AndroidManifest.xml:6:22-64
